[2022-02-22T17:02:21.760] [INFO] zenq - Total / Free Memory (GB) :15.748809814453125 / 8.942455291748047
[2022-02-22T17:02:21.765] [INFO] zenq - CPU Info: {"model":"11th Gen Intel(R) Core(TM) i7-1165G7 @ 2.80GHz","speed":1690,"times":{"user":6315062,"nice":0,"sys":6431156,"idle":148779109,"irq":170375}}
[2022-02-22T17:02:21.765] [INFO] zenq - System Username: sreekanth.kondaveeti
[2022-02-22T17:02:31.838] [INFO] zenq - Launching the url - https://help.shopdisney.com/hc/en-us
[2022-02-22T17:02:33.406] [INFO] zenq - Waited 25000ms for 'Virtual Assistant'{chatbot} in Home page to be displayed
[2022-02-22T17:02:33.440] [INFO] zenq - Waited 10000ms for 'Shop Disney' Logo in Home page to be displayed
[2022-02-22T17:02:33.484] [INFO] zenq - Waited 10000ms for 'Virtual Assistant'{chatbot} in Home page to be displayed
[2022-02-22T17:02:34.579] [INFO] zenq - Clicked on 'Virtual Assistant'{chatbot} in Home page
[2022-02-22T17:02:41.093] [INFO] zenq - Static wait for 6500ms To load the Virtual Assistant{chatbot}
[2022-02-22T17:02:41.187] [INFO] zenq - Switched to Frame 'Virtual Assistant'{chartbot}
[2022-02-22T17:02:42.683] [INFO] zenq - Waited 25000ms for 'Virtual Assistant'{chatbot} Header to be displayed
[2022-02-22T17:02:42.715] [INFO] zenq - Waited 10000ms for 'Order Status' option to be displayed
[2022-02-22T17:02:42.749] [INFO] zenq - Waited 10000ms for 'Something else' option to be displayed
[2022-02-22T17:02:42.793] [INFO] zenq - Waited 10000ms for 'Order Status' option to be displayed
[2022-02-22T17:02:42.885] [INFO] zenq - Clicked on 'Order Status' option
[2022-02-22T17:02:44.893] [INFO] zenq - Static wait for 2000ms To load the new interaction text in chatbot
[2022-02-22T17:02:44.926] [INFO] zenq - Waited 10000ms for ''Glad to help! Do you have your order number and the email address associated with this order?'' text in chatbot to be displayed
[2022-02-22T17:02:44.955] [INFO] zenq - Waited 10000ms for 'Yes' option to be displayed
[2022-02-22T17:02:44.985] [INFO] zenq - Waited 10000ms for 'No' option to be displayed
[2022-02-22T17:02:45.013] [INFO] zenq - Waited 10000ms for 'Go Back' option to be displayed
[2022-02-22T17:02:45.057] [INFO] zenq - Waited 10000ms for 'No' option in chatbot to be displayed
[2022-02-22T17:02:45.136] [INFO] zenq - Clicked on 'No' option in chatbot
[2022-02-22T17:02:46.200] [INFO] zenq - Waited 10000ms for 'No Email Address' option to be displayed
[2022-02-22T17:02:46.228] [INFO] zenq - Waited 10000ms for 'Locate Order Number' to be displayed
[2022-02-22T17:02:46.266] [INFO] zenq - Waited 10000ms for 'Locate Order Number' option in chatbot to be displayed
[2022-02-22T17:02:46.349] [INFO] zenq - Clicked on 'Locate Order Number' option in chatbot
[2022-02-22T17:02:46.388] [INFO] zenq - Waited 10000ms for 'How to find my order number' frame to be displayed
[2022-02-22T17:02:48.059] [INFO] zenq - Switched to Frame 'How to find my order number'
[2022-02-22T17:02:48.410] [INFO] zenq - Static wait for 2000ms To load the preview with text 'How to find my Order Number'
[2022-02-22T17:02:48.442] [INFO] zenq - Waited 10000ms for Preview with text 'How to find my order number' to be displayed
[2022-02-22T17:02:48.449] [INFO] zenq - Switched to Parent Frame undefined
[2022-02-22T17:02:48.491] [INFO] zenq - Waited 10000ms for 'Close' icon in the preview with text 'How to find my order number' to be displayed
[2022-02-22T17:02:48.576] [INFO] zenq - Clicked on 'Close' icon in the preview with text 'How to find my order number'
[2022-02-22T17:02:48.627] [INFO] zenq - Waited 10000ms for 'Was it Helpful' text to be displayed
[2022-02-22T17:02:48.660] [INFO] zenq - Waited 10000ms for 'Yes, I found my order number' option to be displayed
[2022-02-22T17:02:48.696] [INFO] zenq - Waited 10000ms for 'No, I could not find order email' option to be displayed
[2022-02-22T17:02:48.744] [INFO] zenq - Waited 10000ms for 'Yes, I found my order number' option to be displayed
[2022-02-22T17:02:48.825] [INFO] zenq - Clicked on 'Yes, I found my order number' option
[2022-02-22T17:02:49.885] [INFO] zenq - Waited 10000ms for 'Yes' Option to be displayed
[2022-02-22T17:02:49.915] [INFO] zenq - Waited 10000ms for 'No' Option to be displayed
[2022-02-22T17:02:49.947] [INFO] zenq - Waited 10000ms for 'Great. Do you want me to try looking up your order details?' text to be displayed
[2022-02-22T17:02:49.990] [INFO] zenq - Waited 10000ms for 'Yes' option to be displayed
[2022-02-22T17:02:50.061] [INFO] zenq - Clicked on 'Yes' option
[2022-02-22T17:02:51.121] [INFO] zenq - Waited 10000ms for 'Please provide your Order Number' text to be displayed
[2022-02-22T17:02:51.168] [INFO] zenq - Cleared text value of 'Description' textfield
[2022-02-22T17:02:51.206] [INFO] zenq - Waited 10000ms for 'Description' textfield to be displayed
[2022-02-22T17:02:51.310] [INFO] zenq - Entered text in 'Description' textfield as 2234567
[2022-02-22T17:02:51.356] [INFO] zenq - Waited 10000ms for 'Send Message' icon next to 'Description' textfield to be displayed
[2022-02-22T17:02:51.450] [INFO] zenq - Clicked on 'Send Message' icon next to 'Description' textfield
[2022-02-22T17:02:53.508] [INFO] zenq - Waited 10000ms for 'Thanks. And what is the Email Address associated with this order?' text to be displayed
[2022-02-22T17:02:53.546] [INFO] zenq - Cleared text value of 'Description' textfield
[2022-02-22T17:02:53.588] [INFO] zenq - Waited 10000ms for 'Description' textfield to be displayed
[2022-02-22T17:02:53.733] [INFO] zenq - Entered text in 'Description' textfield as testautomation@gmail.com
[2022-02-22T17:02:53.765] [INFO] zenq - Waited 10000ms for 'Send Message' icon next to 'Description' textfield to be displayed
[2022-02-22T17:02:53.842] [INFO] zenq - Clicked on 'Send Message' icon next to 'Description' textfield
[2022-02-22T17:02:55.897] [INFO] zenq - Waited 10000ms for 'I am not able to find an order for the Order Number and Email Address you provided.' text to be displayed
[2022-02-22T17:02:55.927] [INFO] zenq - Waited 10000ms for 'Yes' Option - Check with another email to be displayed
[2022-02-22T17:02:55.955] [INFO] zenq - Waited 10000ms for 'No' option - Check with another email to be displayed
[2022-02-22T17:02:55.995] [INFO] zenq - Waited [object Object]ms for 10000 to be displayed
[2022-02-22T17:02:56.081] [INFO] zenq - Clicked on 10000
[2022-02-22T17:02:57.641] [INFO] zenq - Waited 10000ms for ''No problem. Let me connect you with a cast member for further help.' text to be displayed
[2022-02-22T17:02:57.671] [INFO] zenq - Waited 10000ms for 'Chat with Cast Member' option to be displayed
