{
  "total" : 2,
  "items" : [ {
    "uid" : "543795ce2ec65b05bb1f1a2e92134c67",
    "name" : "InteractingwithChatbotFeatureinShopDisney_Application",
    "statistic" : {
      "failed" : 0,
      "broken" : 0,
      "skipped" : 0,
      "passed" : 1,
      "unknown" : 0,
      "total" : 1
    }
  }, {
    "uid" : "7613a5435ae17088aeb5820f5e6b5619",
    "name" : "InteractingwithChatbotFeatureinShopDisney",
    "statistic" : {
      "failed" : 0,
      "broken" : 0,
      "skipped" : 0,
      "passed" : 1,
      "unknown" : 0,
      "total" : 1
    }
  } ]
}